{
  "type": "tab",
  "id": "f0003b11.0fffc8",
  "label": "Sheet 1",
  "flow": [
    {
      "id": "4413176b.bbece8",
      "type": "inject",
      "z": "f0003b11.0fffc8",
      "name": "",
      "topic": "",
      "payload": "",
      "payloadType": "date",
      "repeat": "",
      "crontab": "",
      "once": false,
      "x": 259,
      "y": 145,
      "wires": [
        [
          "b431ec35.4bce1"
        ]
      ]
    },
    {
      "id": "b431ec35.4bce1",
      "type": "debug",
      "z": "f0003b11.0fffc8",
      "name": "",
      "active": true,
      "console": "false",
      "complete": "false",
      "x": 533,
      "y": 257,
      "wires": []
    },
    {
      "id": "e5c8bef2.1a374",
      "type": "http in",
      "z": "f0003b11.0fffc8",
      "name": "in",
      "url": "/hello",
      "method": "get",
      "swaggerDoc": "",
      "x": 213,
      "y": 402,
      "wires": [
        [
          "9d82f680.627d08",
          "637ff733.9c8008"
        ]
      ]
    },
    {
      "id": "9d82f680.627d08",
      "type": "debug",
      "z": "f0003b11.0fffc8",
      "name": "",
      "active": true,
      "console": "false",
      "complete": "false",
      "x": 520,
      "y": 392,
      "wires": []
    },
    {
      "id": "79138636.86ec78",
      "type": "http response",
      "z": "f0003b11.0fffc8",
      "name": "OK",
      "x": 546,
      "y": 337,
      "wires": []
    },
    {
      "id": "637ff733.9c8008",
      "type": "template",
      "z": "f0003b11.0fffc8",
      "name": "",
      "field": "payload",
      "format": "html",
      "template": "להלן טבלת סידור מחסן האלכוהול והשתייה.\nביום שבו רשומה מחלקה על המחלקה לשלוח נציג ולסדר את מחסני השתייה, כאשר הבראסרי ודייניגנס יעשו זאת לאחר סרוויס(רצוי צהריים), והלייברי עם חילופי משמרות בוקר לפני ירידת ברמן פתיחה.\nעל הנציג לעבור במחסן השתייה הקלה ומחסן האלכוהול ולסדרם לפי הנוהל הבא:\nמחסן שתייה קלה-\n•\tלבדוק שאין קרטונים ריקים או קרטוני שתייה שעומדים להיגמר ולזרוק אותם למחזור הקרטונים, שנמצא משמאל למחסן השתייה הקלה.\n•\tלבדוק שכל סוג שתייה מסודרת בערמה מקובצת כלומר ערמה של ארגזי קוקה קולה קלאסי. ערמה של קולה זירו, ערמה של דיאט קולה, ערמה של ספרייט, ערמה של דיאט ספרייט, ערמה של טוניק, ערמה של סודה, ערמה של פלגרינו קטן וכ'ו.\n----\n{{msg.payload}}",
      "x": 377,
      "y": 311,
      "wires": [
        [
          "79138636.86ec78"
        ]
      ]
    }
  ]
}